PLS 397: Midterm
…
Q2a: Summarizing TSCS Data

# new dataframe with column giving 1 if that polity2 value is greater than or equal to 6 and 0 if not
democ_g6 <- data %>%
  mutate(democ_greater6 = ifelse(polity2 >= 6, 1, 0)) 

# group by region and year and get mean value of countries in that region, that year with a democ rating of 6 or higher
democs_df <- democ_g6 %>%
  group_by(region,year) %>%
  summarize(mean_democs = mean(democ_greater6))

democs_df

## # A tibble: 384 x 3
## # Groups:   region [7]
##    region                      year mean_democs
##    <fct>                      <int>       <dbl>
##  1 Middle East & North Africa  1961       1    
##  2 Middle East & North Africa  1962       0.5  
##  3 Middle East & North Africa  1963       0    
##  4 Middle East & North Africa  1964       0    
##  5 Middle East & North Africa  1965       0    
##  6 Middle East & North Africa  1966       0.2  
##  7 Middle East & North Africa  1967       0.2  
##  8 Middle East & North Africa  1968       0.143
##  9 Middle East & North Africa  1969       0.143
## 10 Middle East & North Africa  1970       0.143
## #  with 374 more rows
…
